id;item_name;item_category
1;Animalprint;Muster
2;Camouflage;Muster
3;Ethno_Muster;Muster
4;Farbverlauf;Muster
5;Gebluemt_floral;Muster
6;Gepunktet;Muster
7;Gestreift;Muster
8;Kariert;Muster
9;Logoprint;Muster
10;Melange;Muster
11;Motivprint;Muster
12;Mottoprint;Muster
13;Norweger_Muster;Muster
14;Paisley_Muster;Muster
15;Two_Tone;Muster
16;Unifarben;Muster